IE-582 Project Report
…
The third approach is based on the forecasting power of games actually finished home win, tie, and away win. Thus, home, tie, and away prediction capabilities of three ML algorithms can be compared.

4. Results

One of the parameters changed is the start date of the dataset. The original data starts from August 2010. However, performances of the teams may change over the years, and considering the very past information may worsen the prediction power of models. Trying several starting dates, August 2013 is decided to be followed in both odd-details and match data.

Another parameter varied to improve the test accuracy is the missing data removal threshold limit. It has been changed from 0.005 to 0.1, and 0.01 is determined as the final threshold and this leave us with 96 features extracted from odd-details data.

One major indicator of the success of the model is the RPS. As mentioned above, RPS shows how the predicted probabilities satisfies the match outcomes. Regarding the fact that lower the RPS, higher the model accuracy, below RPS results yield that elastic net algorithm (glmnet) gives better predictions.

The following results are computed by separating test set from the start of the first round for the project, until the end of the last round (which accounts for 80 matches).

Result of RPS calculation for each match as matrix and a combined value as a single value:

## # A tibble: 80 x 3
##    glmnet    xgb     rf
##     <dbl>  <dbl>  <dbl>
##  1 0.167  0.128  0.145 
##  2 0.129  0.132  0.0936
##  3 0.375  0.350  0.331 
##  4 0.313  0.329  0.336 
##  5 0.347  0.364  0.277 
##  6 0.103  0.106  0.120 
##  7 0.139  0.142  0.151 
##  8 0.398  0.428  0.407 
##  9 0.0469 0.0265 0.0495
## 10 0.0291 0.0240 0.0271
## # ... with 70 more rows

## # A tibble: 1 x 3
##   glmnet   xgb    rf
##    <dbl> <dbl> <dbl>
## 1  0.134 0.143 0.138

As mentioned under the “Data Preprocessing” title, 12 new features (108 features in total) are created from the match results. These are showing teams’ home and away performances in their last 5 matches. Models are reconstructed with all 108 features, and resulting RPSs are recalculated.

Result of RPS calculation for each match as matrix and a combined value as a single value with added features:

## # A tibble: 80 x 3
##    glmnet    xgb     rf
##     <dbl>  <dbl>  <dbl>
##  1 0.0654 0.0535 0.0709
##  2 0.153  0.187  0.216 
##  3 0.490  0.605  0.527 
##  4 0.232  0.280  0.186 
##  5 0.131  0.134  0.172 
##  6 0.221  0.216  0.173 
##  7 0.526  0.593  0.584 
##  8 0.417  0.519  0.438 
##  9 0.316  0.373  0.316 
## 10 0.189  0.187  0.170 
## # ... with 70 more rows
…
